date,total_cases
0132020,60
0232020,60
0332020,70
0432020,100
0532020,130
0632020,130
0732020,130
0832020,140
0932020,150
1032020,150
1132020,170
1232020,170
1332020,170
1432020,280
1532020,280
1632020,370
1732020,580
1832020,1110
1932020,1990
2032020,3670
2132020,5060
2232020,7890
2332020,9810
2432020,10820
2532020,11730
2632020,14030
2732020,15950
2832020,18230
2932020,19240
3032020,19620
3132020,22400
0142020,27480
0242020,31630
0342020,33680
0442020,34650
0542020,36460
0642020,37470
0742020,37470
0842020,44500
0942020,49650
1042020,71610
1142020,72570
1242020,74660
1342020,75290
1442020,76030
1542020,78580
1642020,82250
1742020,84500
1842020,90220
1942020,94680
2042020,101280
2142020,103980
2242020,108500
2342020,111830
2442020,227190
2542020,227190
2642020,227190
2742020,232400
2842020,242580
2942020,246750
3042020,249340
0152020,263360
0252020,274640
0352020,295380
0452020,318810
0552020,318810
0652020,318810
0752020,302980
0852020,288180
0952020,290710
1052020,295590
1152020,295090
1252020,304190
1352020,304860
1452020,305020
1552020,314670
1652020,327630
1752020,331820
1852020,335820
1952020,341510
2052020,348540
2152020,353060
2252020,358280
2352020,362580
2452020,367560
2552020,373550
2652020,373550
2752020,381030
2852020,384710
2952020,385710
3052020,385710
3152020,390980
0162020,390980
0262020,404140
0362020,409660
0462020,409660
0562020,415750
0662020,427280
0762020,431200
0862020,433780
0962020,439170
1062020,444400
1162020,444400
1262020,457780
1362020,463560
1462020,467510
1562020,473220
1662020,479430
1762020,484900
1862020,490970
1962020,497310
2062020,497310
2162020,506400
2262020,506400
2362020,516430
2462020,516430
2562020,531560
2662020,538560
2762020,545740
2862020,552550
2962020,556650
3062020,564320
0172020,582570
0272020,594680
0372020,606570
0472020,615350
0572020,619580
0672020,623800
0772020,632450
0872020,632450
0972020,642210
1072020,650180
1172020,672090
1272020,678700
1372020,684590
1472020,695700
1572020,703290
1672020,713650
1772020,724440
1872020,733820
1972020,740130
2072020,746200
2172020,762170
2272020,772570
2372020,781480
2472020,790490
2572020,800360
2672020,806940
2772020,811610
2872020,822790
2972020,831930
3072020,843700
3172020,853550
0182020,862320
0282020,862320
0382020,870410
0482020,879630
0582020,888660
0682020,905370
0782020,919690
0882020,935720
0982020,944590
1082020,947010
1182020,955630
1282020,971100
1382020,983430
1482020,994090
1582020,1006880
1682020,1015420
1782020,1017510
1882020,1029410
1982020,1044750
2082020,1055080
2182020,1064810
2282020,1070890
2382020,1077690
2482020,1082890
2582020,1090300
2682020,1105490
2782020,1112190
2882020,1121410
2982020,1129060
3082020,1136480
3182020,1137670
0192020,1143090
0292020,1154570
0392020,1163600
0492020,1171750
0592020,1180450
0692020,1180450
0792020,1100920
0892020,1107570
0992020,1121660
1092020,1132060
1192020,1147320
1292020,1164510
1392020,1185940
1492020,1189110
1592020,1195530
1692020,1215250
1792020,1222570
1892020,1241290
1992020,1256200
2092020,1264190
2192020,1267110
2292020,1276430
2392020,1298920
2492020,1311460
2592020,1324750
2692020,1339810
2792020,1347470
2892020,1349650
2992020,1357490
3092020,1370470
01102020,1385840
02102020,1395340
03102020,1403510
04102020,1410340
05102020,1413390
06102020,1420560
07102020,1435310
08102020,1450450
09102020,1458480
10102020,1468280
11102020,1470330
12102020,1473150
13102020,1481710
14102020,1490830
15102020,1503600
16102020,1516590
17102020,1524220
18102020,1532890
19102020,1534230
20102020,1541150
21102020,1556250
22102020,1564510
23102020,1582700
24102020,1596140
25102020,1616350
26102020,1621780
27102020,1631920
28102020,1649080
29102020,1663020
30102020,1671470
31102020,1681920
01112020,1691940
02112020,1695620
03112020,1701100
04112020,1714330
05112020,1717830
06112020,1725080
07112020,1734860
08112020,1749070
09112020,1752690
10112020,1757110
11112020,1766300
12112020,1775130
13112020,1786740
14112020,1796270
15112020,1802950
16112020,1806760
17112020,1811040
18112020,1822500
19112020,1832460
20112020,1838400
21112020,1848760
22112020,1856430
23112020,1859440
24112020,1864360
25112020,1872300
26112020,1881380
27112020,1895340
28112020,1909090
29112020,1921170
30112020,1926850
01122020,1936730
02122020,1948760
03122020,1958840
04122020,1964820
05122020,1973910
06122020,1979980
07122020,1982440
08122020,1987520
09122020,1992280
10122020,2003790
11122020,2007650
12122020,2015240
13122020,2021100
14122020,2021800
15122020,2023560
16122020,2034610
17122020,2042490
18122020,2050030
19122020,2059200
20122020,2062570
21122020,2063290
22122020,2063640
23122020,2070840
24122020,2080100
25122020,2088280
26122020,2092740
27122020,2093550
28122020,2097580
29122020,2103260
30122020,2115120
31122020,2125120
0112021,2133780
0212021,2145130
0312021,2146140
0412021,2150800
0512021,2160830
0612021,2173770
0712021,2183850
0812021,2191480
0912021,2203490
1012021,2210700
1112021,2215060
1212021,2225670
1312021,2243150
1412021,2260020
1512021,2268660
1612021,2308080
1712021,2314820
1812021,2316440
1912021,2325680
2012021,2343150
2112021,2361890
2212021,2371580
2312021,2382320
2412021,2412920
2512021,2415670
2612021,2421460
2712021,2435350
2812021,2460000
2912021,2466870
3012021,2497790
3112021,2508280
0122021,2509860
0222021,2512790
0322021,2523900
0422021,2533390
0522021,2554120
0622021,2571150
0722021,2582820
0822021,2586070
0922021,2597830
1022021,2600760
1122021,2622130
1222021,2635170
1322021,2655270
1422021,2672230
1522021,2677010
1622021,2680730
1722021,2682190
1822021,2698600
1922021,2712760
2022021,2730970
2122021,2746730
2222021,2749680
2322021,2757800
2422021,2787790
2522021,2811690
2622021,2825990
2722021,2843470
2822021,2861550
0132021,2863670
0232021,2867250
0332021,2894720
0432021,2897350
0532021,2910700
0632021,2929430
0732021,2945030
0832021,2946180
0932021,2951140
1032021,2968410
1132021,2979570
1232021,2992160
1332021,3006660
1432021,3022210
1532021,3024980
1632021,3028540
1732021,3055980
1832021,3074290
1932021,3096430
2032021,3108680
2132021,3125980
2232021,3128510
2332021,3135700
2432021,3168070
2532021,3186560
2632021,3214510
2732021,3226990
2832021,3244820
2932021,3251240
3032021,3273250
3132021,3287550
0142021,3303880
0242021,3320380
0342021,3331750
0442021,3356810
0542021,3367770
0642021,3377020
0742021,3396040
0842021,3416190
