date,new_cases
132020,60
232020,0
332020,10
432020,30
532020,30
632020,0
732020,0
832020,10
932020,10
1032020,0
1132020,20
1232020,0
1332020,0
1432020,110
1532020,0
1632020,90
1732020,210
1832020,530
1932020,880
2032020,1680
2132020,1390
2232020,2830
2332020,1920
2432020,1010
2532020,910
2632020,2300
2732020,1920
2832020,2280
2932020,1010
3032020,380
3132020,2780
142020,5080
242020,4150
342020,2050
442020,970
542020,1810
642020,1010
742020,0
842020,7030
942020,5150
1042020,21960
1142020,960
1242020,2090
1342020,630
1442020,740
1542020,2550
1642020,3670
1742020,2250
1842020,5720
1942020,4460
2042020,6600
2142020,2700
2242020,4520
2342020,3330
2442020,115360
2542020,0
2642020,0
2742020,5210
2842020,10180
2942020,4170
3042020,2590
152020,14020
252020,11280
352020,20740
452020,23430
552020,0
652020,0
752020,-15830
852020,-14800
952020,2530
1052020,4880
1152020,-500
1252020,9100
1352020,670
1452020,160
1552020,9650
1652020,12960
1752020,4190
1852020,4000
1952020,5690
2052020,7030
2152020,4520
2252020,5220
2352020,4300
2452020,4980
2552020,5990
2652020,0
2752020,7480
2852020,3680
2952020,1000
3052020,0
3152020,5270
162020,0
262020,13160
362020,5520
462020,0
562020,6090
662020,11530
762020,3920
862020,2580
962020,5390
1062020,5230
1162020,0
1262020,13380
1362020,5780
1462020,3950
1562020,5710
1662020,6210
1762020,5470
1862020,6070
1962020,6340
2062020,0
2162020,9090
2262020,0
2362020,10030
2462020,0
2562020,15130
2662020,7000
2762020,7180
2862020,6810
2962020,4100
3062020,7670
172020,18250
272020,12110
372020,11890
472020,8780
572020,4230
672020,4220
772020,8650
872020,0
972020,9760
1072020,7970
1172020,21910
1272020,6610
1372020,5890
1472020,11110
1572020,7590
1672020,10360
1772020,10790
1872020,9380
1972020,6310
2072020,6070
2172020,15970
2272020,10400
2372020,8910
2472020,9010
2572020,9870
2672020,6580
2772020,4670
2872020,11180
2972020,9140
3072020,11770
3172020,9850
182020,8770
282020,0
382020,8090
482020,9220
582020,9030
682020,16710
782020,14320
882020,16030
982020,8870
1082020,2420
1182020,8620
1282020,15470
1382020,12330
1482020,10660
1582020,12790
1682020,8540
1782020,2090
1882020,11900
1982020,15340
2082020,10330
2182020,9730
2282020,6080
2382020,6800
2482020,5200
2582020,7410
2682020,15190
2782020,6700
2882020,9220
2982020,7650
3082020,7420
3182020,1190
192020,5420
292020,11480
392020,9030
492020,8150
592020,8700
692020,0
792020,-79530
892020,6650
992020,14090
1092020,10400
1192020,15260
1292020,17190
1392020,21430
1492020,3170
1592020,6420
1692020,19720
1792020,7320
1892020,18720
1992020,14910
2092020,7990
2192020,2920
2292020,9320
2392020,22490
2492020,12540
2592020,13290
2692020,15060
2792020,7660
2892020,2180
2992020,7840
3092020,12980
1102020,15370
2102020,9500
3102020,8170
4102020,6830
5102020,3050
6102020,7170
7102020,14750
8102020,15140
9102020,8030
10102020,9800
11102020,2050
12102020,2820
13102020,8560
14102020,9120
15102020,12770
16102020,12990
17102020,7630
18102020,8670
19102020,1340
20102020,6920
21102020,15100
22102020,8260
23102020,18190
24102020,13440
25102020,20210
26102020,5430
27102020,10140
28102020,17160
29102020,13940
30102020,8450
31102020,10450
1112020,10020
2112020,3680
3112020,5480
4112020,13230
5112020,3500
6112020,7250
7112020,9780
8112020,14210
9112020,3620
10112020,4420
11112020,9190
12112020,8830
13112020,11610
14112020,9530
15112020,6680
16112020,3810
17112020,4280
18112020,11460
19112020,9960
20112020,5940
21112020,10360
22112020,7670
23112020,3010
24112020,4920
25112020,7940
26112020,9080
27112020,13960
28112020,13750
29112020,12080
30112020,5680
1122020,9880
2122020,12030
3122020,10080
4122020,5980
5122020,9090
6122020,6070
7122020,2460
8122020,5080
9122020,4760
10122020,11510
11122020,3860
12122020,7590
13122020,5860
14122020,700
15122020,1760
16122020,11050
17122020,7880
18122020,7540
19122020,9170
20122020,3370
21122020,720
22122020,350
23122020,7200
24122020,9260
25122020,8180
26122020,4460
27122020,810
28122020,4030
29122020,5680
30122020,11860
31122020,10000
112021,8660
212021,11350
312021,1010
412021,4660
512021,10030
612021,12940
712021,10080
812021,7630
912021,12010
1012021,7210
1112021,4360
1212021,10610
1312021,17480
1412021,16870
1512021,8640
1612021,39420
1712021,6740
1812021,1620
1912021,9240
2012021,17470
2112021,18740
2212021,9690
2312021,10740
2412021,30600
2512021,2750
2612021,5790
2712021,13890
2812021,24650
2912021,6870
3012021,30920
3112021,10490
122021,1580
222021,2930
322021,11110
422021,9490
522021,20730
622021,17030
722021,11670
822021,3250
922021,11760
1022021,2930
1122021,21370
1222021,13040
1322021,20100
1422021,16960
1522021,4780
1622021,3720
1722021,1460
1822021,16410
1922021,14160
2022021,18210
2122021,15760
2222021,2950
2322021,8120
2422021,29990
2522021,23900
2622021,14300
2722021,17480
2822021,18080
132021,2120
232021,3580
332021,27470
432021,2630
532021,13350
632021,18730
732021,15600
832021,1150
932021,4960
1032021,17270
1132021,11160
1232021,12590
1332021,14500
1432021,15550
1532021,2770
1632021,3560
1732021,27440
1832021,18310
1932021,22140
2032021,12250
2132021,17300
2232021,2530
2332021,7190
2432021,32370
2532021,18490
2632021,27950
2732021,12480
2832021,17830
2932021,6420
3032021,22010
3132021,14300
142021,16330
242021,16500
342021,11370
442021,25060
542021,10960
642021,9250
742021,19020
842021,20150
